name
Candidate g005 008
#
age
0
#
endReason
Vehicle is dead
#
totalDistance
83.84444
#
totalTime
0.8799994
#
networkWeights
break 0.157396540046 0.092395752668 -1.009433984756 -0.353717803955 -0.077153921127 0.013796329498 0.877799272537 0.820351660252 0.753254294395 -0.562502145767 -0.242830872536 0.789573550224 -0.860180974007
right 0.918379724026 -1.165873885155 0.180294036865 -0.045735001564 -0.429062724113 0.046552479267 -0.234182715416 -0.324303150177 -0.561830818653 0.297405838966 -0.969554185867 -0.848249435425 1.265343666077
n10 -0.110133171082 -0.204478383064 0.027507759631 0.627970695496 1.664514064789 -0.136126875877 0.278192400932
n12 0.428233683109 -0.713910818100 -0.177491605282 0.032346770167 -0.274359911680 0.831753730774 -0.382945775986
n11 0.711521506310 0.294257402420 0.508798897266 0.720392704010 0.449555039406 0.430153012276 0.002075672150
n14 -0.499278306961 0.652580380440 0.541156768799 0.555982828140 1.261171460152 0.360665857792 -0.071272969246
n110 -0.762217640877 -0.407398223877 -0.640593767166 0.082765221596 -0.025580406189 -0.803094029427 0.046939373016
n13 0.814367413521 -0.262057185173 -0.199393630028 -0.422740936279 0.096356987953 0.871041297913 0.040610194206
n111 -0.044738888741 0.822451293468 -1.009784460068 -0.276493459940 0.676454067230 0.818741321564 -0.093912243843
n16 -0.753223776817 0.078092098236 -0.241184949875 0.196895360947 1.194427847862 0.410906255245 -0.980492711067
n15 -0.948972582817 -0.626638114452 0.579657077789 0.139611124992 0.492837786674 -1.185847759247 0.550564408302
n18 0.280838489532 -0.697802066803 -0.219663381577 0.154374718666 0.456429541111 1.293961524963 0.923531889915
n17 0.831097126007 -0.465856790543 0.130784630775 0.301056027412 0.408273339272 0.802120923996 0.523474812508
left 0.849499225616 0.187640905380 0.675570726395 -0.418728351593 -0.580148100853 -0.653570055962 0.247662067413 -0.953256607056 0.498577773571 -0.303044557571 -0.656386137009 -0.925168037415 -0.657620429993
n19 -0.270776629448 -0.586008548737 0.372564524412 -0.907313108444 -0.901033997536 0.812342822552 -0.503229796886
thrust 0.615132093430 -0.409027934074 0.011511683464 1.757231593132 0.315239429474 -0.607311725616 -1.525384426117 0.397687077522 0.827978312969 -0.024355411530 0.272189140320 -0.255297303200 -0.783618927002
