name
Candidate g006 004
#
endReason
Slower than average speed of 10.0
#
totalDistance
22.69208
#
totalTime
0.95999926
#
fitness
0.009069557
#
networkWeights
break -0.000000000000 -0.000000000000 0.144683107734 -0.000000000000 -0.000000000000 -0.000000000000 -0.000000000000 -0.000000000000 -0.000000000000 -0.000000000000 -0.000000000000 -0.000000000000 -0.000000000000 -0.000000000000 -0.000000000000 -0.000000000000
right -0.000000000000 -0.000000000000 -0.000000000000 -0.000000000000 -0.000000000000 -0.000000000000 -0.000000000000 -0.000000000000 -0.000000000000 -0.000000000000 -0.000000000000 -0.000000000000 -0.000000000000 -0.000000000000 -0.000000000000 -0.000000000000
n10 -0.000000000000 -0.000000000000 -0.000000000000 -0.000000000000 -0.000000000000 -0.000000000000 -0.000000000000 -0.000000000000
n12 -0.000000000000 -0.000000000000 -0.000000000000 -0.000000000000 -0.000000000000 -0.000000000000 -0.000000000000 -0.000000000000
n11 -0.000000000000 -0.000000000000 -0.000000000000 -0.000000000000 -0.000000000000 -0.000000000000 -0.000000000000 -0.000000000000
n14 -0.000000000000 -0.000000000000 -0.000000000000 -0.000000000000 -0.000000000000 -0.000000000000 -0.000000000000 -0.000000000000
n110 -0.000000000000 -0.000000000000 -0.000000000000 -0.000000000000 -0.000000000000 -0.000000000000 -0.000000000000 -0.000000000000
n13 -0.000000000000 -0.000000000000 -0.000000000000 -0.000000000000 -0.000000000000 -0.000000000000 -0.000000000000 -0.000000000000
n111 -0.000000000000 -0.000000000000 -0.000000000000 -0.000000000000 -0.000000000000 -0.000000000000 -0.000000000000 -0.000000000000
n16 -0.000000000000 -0.000000000000 -0.000000000000 -0.000000000000 -0.000000000000 -0.000000000000 -0.000000000000 -0.000000000000
n15 -0.000000000000 -0.000000000000 -0.000000000000 -0.000000000000 -0.000000000000 -0.000000000000 -0.000000000000 -0.000000000000
n18 -0.000000000000 -0.000000000000 -0.000000000000 -0.000000000000 -0.000000000000 -0.000000000000 -0.000000000000 -0.000000000000
n114 -0.000000000000 -0.000000000000 -0.000000000000 -0.000000000000 -0.000000000000 -0.000000000000 -0.000000000000 -0.000000000000
n17 -0.000000000000 -0.000000000000 -0.000000000000 -0.000000000000 -0.000000000000 -0.000000000000 -0.000000000000 -0.000000000000
n115 -0.000000000000 -0.000000000000 -0.000000000000 -0.000000000000 -0.000000000000 -0.000000000000 -0.000000000000 -0.000000000000
left -0.000000000000 -0.000000000000 -0.000000000000 -0.000000000000 -0.000000000000 -0.000000000000 -0.000000000000 -0.000000000000 -0.000000000000 -0.000000000000 -0.000000000000 -0.000000000000 -0.000000000000 -0.000000000000 -0.000000000000 -0.000000000000
n112 -0.000000000000 -0.000000000000 -0.000000000000 -0.000000000000 -0.000000000000 -0.000000000000 -0.000000000000 -0.000000000000
n19 -0.000000000000 -0.000000000000 -0.000000000000 -0.000000000000 -0.000000000000 -0.000000000000 -0.000000000000 -0.756996810436
n113 -0.000000000000 -0.000000000000 -0.000000000000 -0.000000000000 -0.000000000000 -0.000000000000 -0.000000000000 -0.000000000000
thrust -0.000000000000 -0.000000000000 -0.000000000000 -0.000000000000 -0.000000000000 -0.000000000000 -0.000000000000 -0.000000000000 -0.000000000000 -0.000000000000 -0.000000000000 -0.000000000000 -0.000000000000 -0.000000000000 -0.000000000000 -0.000000000000
